info face="Arial" size=20 bold=0 italic=0 charset="" unicode=0 stretchH=100 smooth=1 aa=1 padding=0,0,0,0 spacing=0,0
common lineHeight=24 base=19 scaleW=512 scaleH=512 pages=1 packed=0
page id=0 file="black_tiengviet.png"
chars count=242
char id=32   x=0     y=0     width=0     height=0     xoffset=0     yoffset=19    xadvance=6     page=0  chnl=0 
char id=7896   x=0     y=0     width=16     height=23     xoffset=1     yoffset=0    xadvance=16     page=0  chnl=0 
char id=7878   x=16     y=0     width=12     height=23     xoffset=2     yoffset=0    xadvance=13     page=0  chnl=0 
char id=7862   x=28     y=0     width=16     height=23     xoffset=-1     yoffset=0    xadvance=13     page=0  chnl=0 
char id=7852   x=44     y=0     width=16     height=23     xoffset=-1     yoffset=0    xadvance=13     page=0  chnl=0 
char id=64   x=60     y=0     width=20     height=21     xoffset=1     yoffset=3    xadvance=20     page=0  chnl=0 
char id=124   x=80     y=0     width=4     height=21     xoffset=2     yoffset=3    xadvance=6     page=0  chnl=0 
char id=125   x=84     y=0     width=8     height=21     xoffset=1     yoffset=3    xadvance=7     page=0  chnl=0 
char id=123   x=92     y=0     width=8     height=21     xoffset=0     yoffset=3    xadvance=7     page=0  chnl=0 
char id=93   x=100     y=0     width=6     height=21     xoffset=1     yoffset=3    xadvance=6     page=0  chnl=0 
char id=91   x=106     y=0     width=6     height=21     xoffset=1     yoffset=3    xadvance=6     page=0  chnl=0 
char id=41   x=112     y=0     width=7     height=21     xoffset=1     yoffset=3    xadvance=7     page=0  chnl=0 
char id=40   x=119     y=0     width=6     height=21     xoffset=1     yoffset=3    xadvance=7     page=0  chnl=0 
char id=7929   x=125     y=0     width=12     height=21     xoffset=-1     yoffset=3    xadvance=10     page=0  chnl=0 
char id=7927   x=137     y=0     width=12     height=21     xoffset=-1     yoffset=3    xadvance=10     page=0  chnl=0 
char id=253   x=149     y=0     width=12     height=21     xoffset=-1     yoffset=3    xadvance=10     page=0  chnl=0 
char id=7923   x=161     y=0     width=12     height=21     xoffset=-1     yoffset=3    xadvance=10     page=0  chnl=0 
char id=7928   x=173     y=0     width=15     height=21     xoffset=0     yoffset=-1    xadvance=14     page=0  chnl=0 
char id=7926   x=188     y=0     width=15     height=21     xoffset=0     yoffset=-1    xadvance=14     page=0  chnl=0 
char id=221   x=203     y=0     width=15     height=21     xoffset=0     yoffset=-1    xadvance=14     page=0  chnl=0 
char id=7922   x=218     y=0     width=15     height=21     xoffset=0     yoffset=-1    xadvance=14     page=0  chnl=0 
char id=7918   x=233     y=0     width=18     height=21     xoffset=1     yoffset=-1    xadvance=17     page=0  chnl=0 
char id=7916   x=251     y=0     width=18     height=21     xoffset=1     yoffset=-1    xadvance=17     page=0  chnl=0 
char id=7912   x=269     y=0     width=18     height=21     xoffset=1     yoffset=-1    xadvance=17     page=0  chnl=0 
char id=7914   x=287     y=0     width=18     height=21     xoffset=1     yoffset=-1    xadvance=17     page=0  chnl=0 
char id=360   x=305     y=0     width=13     height=21     xoffset=1     yoffset=-1    xadvance=13     page=0  chnl=0 
char id=7910   x=318     y=0     width=13     height=21     xoffset=1     yoffset=-1    xadvance=13     page=0  chnl=0 
char id=218   x=331     y=0     width=13     height=21     xoffset=1     yoffset=-1    xadvance=13     page=0  chnl=0 
char id=217   x=344     y=0     width=13     height=21     xoffset=1     yoffset=-1    xadvance=13     page=0  chnl=0 
char id=7904   x=357     y=0     width=18     height=21     xoffset=1     yoffset=-1    xadvance=17     page=0  chnl=0 
char id=7902   x=375     y=0     width=18     height=21     xoffset=1     yoffset=-1    xadvance=17     page=0  chnl=0 
char id=7898   x=393     y=0     width=18     height=21     xoffset=1     yoffset=-1    xadvance=17     page=0  chnl=0 
char id=7900   x=411     y=0     width=18     height=21     xoffset=1     yoffset=-1    xadvance=17     page=0  chnl=0 
char id=7893   x=429     y=0     width=11     height=21     xoffset=1     yoffset=-1    xadvance=11     page=0  chnl=0 
char id=7889   x=440     y=0     width=11     height=21     xoffset=1     yoffset=-1    xadvance=11     page=0  chnl=0 
char id=7891   x=451     y=0     width=11     height=21     xoffset=1     yoffset=-1    xadvance=11     page=0  chnl=0 
char id=7894   x=462     y=0     width=16     height=21     xoffset=1     yoffset=-1    xadvance=16     page=0  chnl=0 
char id=7892   x=478     y=0     width=16     height=21     xoffset=1     yoffset=-1    xadvance=16     page=0  chnl=0 
char id=7888   x=494     y=0     width=16     height=21     xoffset=1     yoffset=-1    xadvance=16     page=0  chnl=0 
char id=7890   x=0     y=23     width=16     height=21     xoffset=1     yoffset=-1    xadvance=16     page=0  chnl=0 
char id=212   x=16     y=23     width=16     height=21     xoffset=1     yoffset=-1    xadvance=16     page=0  chnl=0 
char id=213   x=32     y=23     width=16     height=21     xoffset=1     yoffset=-1    xadvance=16     page=0  chnl=0 
char id=7886   x=48     y=23     width=16     height=21     xoffset=1     yoffset=-1    xadvance=16     page=0  chnl=0 
char id=211   x=64     y=23     width=16     height=21     xoffset=1     yoffset=-1    xadvance=16     page=0  chnl=0 
char id=210   x=80     y=23     width=16     height=21     xoffset=1     yoffset=-1    xadvance=16     page=0  chnl=0 
char id=296   x=96     y=23     width=8     height=21     xoffset=0     yoffset=-1    xadvance=6     page=0  chnl=0 
char id=7880   x=104     y=23     width=5     height=21     xoffset=1     yoffset=-1    xadvance=6     page=0  chnl=0 
char id=205   x=109     y=23     width=4     height=21     xoffset=2     yoffset=-1    xadvance=6     page=0  chnl=0 
char id=204   x=113     y=23     width=5     height=21     xoffset=1     yoffset=-1    xadvance=6     page=0  chnl=0 
char id=7875   x=118     y=23     width=11     height=21     xoffset=1     yoffset=-1    xadvance=11     page=0  chnl=0 
char id=7871   x=129     y=23     width=11     height=21     xoffset=1     yoffset=-1    xadvance=11     page=0  chnl=0 
char id=7873   x=140     y=23     width=11     height=21     xoffset=1     yoffset=-1    xadvance=11     page=0  chnl=0 
char id=7876   x=151     y=23     width=12     height=21     xoffset=2     yoffset=-1    xadvance=13     page=0  chnl=0 
char id=7874   x=163     y=23     width=12     height=21     xoffset=2     yoffset=-1    xadvance=13     page=0  chnl=0 
char id=7870   x=175     y=23     width=12     height=21     xoffset=2     yoffset=-1    xadvance=13     page=0  chnl=0 
char id=7872   x=187     y=23     width=12     height=21     xoffset=2     yoffset=-1    xadvance=13     page=0  chnl=0 
char id=202   x=199     y=23     width=12     height=21     xoffset=2     yoffset=-1    xadvance=13     page=0  chnl=0 
char id=7868   x=211     y=23     width=12     height=21     xoffset=2     yoffset=-1    xadvance=13     page=0  chnl=0 
char id=7866   x=223     y=23     width=12     height=21     xoffset=2     yoffset=-1    xadvance=13     page=0  chnl=0 
char id=201   x=235     y=23     width=12     height=21     xoffset=2     yoffset=-1    xadvance=13     page=0  chnl=0 
char id=200   x=247     y=23     width=12     height=21     xoffset=2     yoffset=-1    xadvance=13     page=0  chnl=0 
char id=7859   x=259     y=23     width=10     height=21     xoffset=1     yoffset=-1    xadvance=11     page=0  chnl=0 
char id=7855   x=269     y=23     width=10     height=21     xoffset=1     yoffset=-1    xadvance=11     page=0  chnl=0 
char id=7857   x=279     y=23     width=10     height=21     xoffset=1     yoffset=-1    xadvance=11     page=0  chnl=0 
char id=7860   x=289     y=23     width=16     height=21     xoffset=-1     yoffset=-1    xadvance=13     page=0  chnl=0 
char id=7858   x=305     y=23     width=16     height=21     xoffset=-1     yoffset=-1    xadvance=13     page=0  chnl=0 
char id=7854   x=321     y=23     width=16     height=21     xoffset=-1     yoffset=-1    xadvance=13     page=0  chnl=0 
char id=7856   x=337     y=23     width=16     height=21     xoffset=-1     yoffset=-1    xadvance=13     page=0  chnl=0 
char id=258   x=353     y=23     width=16     height=21     xoffset=-1     yoffset=-1    xadvance=13     page=0  chnl=0 
char id=7849   x=369     y=23     width=10     height=21     xoffset=1     yoffset=-1    xadvance=11     page=0  chnl=0 
char id=7845   x=379     y=23     width=10     height=21     xoffset=1     yoffset=-1    xadvance=11     page=0  chnl=0 
char id=7847   x=389     y=23     width=10     height=21     xoffset=1     yoffset=-1    xadvance=11     page=0  chnl=0 
char id=7850   x=399     y=23     width=16     height=21     xoffset=-1     yoffset=-1    xadvance=13     page=0  chnl=0 
char id=7848   x=415     y=23     width=16     height=21     xoffset=-1     yoffset=-1    xadvance=13     page=0  chnl=0 
char id=7844   x=431     y=23     width=16     height=21     xoffset=-1     yoffset=-1    xadvance=13     page=0  chnl=0 
char id=7846   x=447     y=23     width=16     height=21     xoffset=-1     yoffset=-1    xadvance=13     page=0  chnl=0 
char id=194   x=463     y=23     width=16     height=21     xoffset=-1     yoffset=-1    xadvance=13     page=0  chnl=0 
char id=195   x=479     y=23     width=16     height=21     xoffset=-1     yoffset=-1    xadvance=13     page=0  chnl=0 
char id=7842   x=495     y=23     width=16     height=21     xoffset=-1     yoffset=-1    xadvance=13     page=0  chnl=0 
char id=193   x=0     y=44     width=16     height=21     xoffset=-1     yoffset=-1    xadvance=13     page=0  chnl=0 
char id=192   x=16     y=44     width=16     height=21     xoffset=-1     yoffset=-1    xadvance=13     page=0  chnl=0 
char id=106   x=32     y=44     width=6     height=21     xoffset=-1     yoffset=3    xadvance=4     page=0  chnl=0 
char id=36   x=38     y=44     width=11     height=20     xoffset=1     yoffset=2    xadvance=11     page=0  chnl=0 
char id=7924   x=49     y=44     width=15     height=20     xoffset=0     yoffset=3    xadvance=14     page=0  chnl=0 
char id=7920   x=64     y=44     width=18     height=20     xoffset=1     yoffset=3    xadvance=17     page=0  chnl=0 
char id=7908   x=82     y=44     width=13     height=20     xoffset=1     yoffset=3    xadvance=13     page=0  chnl=0 
char id=7906   x=95     y=44     width=18     height=20     xoffset=1     yoffset=3    xadvance=17     page=0  chnl=0 
char id=7897   x=113     y=44     width=11     height=20     xoffset=1     yoffset=3    xadvance=11     page=0  chnl=0 
char id=7895   x=124     y=44     width=11     height=20     xoffset=1     yoffset=0    xadvance=11     page=0  chnl=0 
char id=7883   x=135     y=44     width=4     height=20     xoffset=1     yoffset=3    xadvance=4     page=0  chnl=0 
char id=7882   x=139     y=44     width=4     height=20     xoffset=2     yoffset=3    xadvance=6     page=0  chnl=0 
char id=7879   x=143     y=44     width=11     height=20     xoffset=1     yoffset=3    xadvance=11     page=0  chnl=0 
char id=7877   x=154     y=44     width=11     height=20     xoffset=1     yoffset=0    xadvance=11     page=0  chnl=0 
char id=7864   x=165     y=44     width=12     height=20     xoffset=2     yoffset=3    xadvance=13     page=0  chnl=0 
char id=7863   x=177     y=44     width=10     height=20     xoffset=1     yoffset=3    xadvance=11     page=0  chnl=0 
char id=7861   x=187     y=44     width=10     height=20     xoffset=1     yoffset=0    xadvance=11     page=0  chnl=0 
char id=7853   x=197     y=44     width=10     height=20     xoffset=1     yoffset=3    xadvance=11     page=0  chnl=0 
char id=7851   x=207     y=44     width=10     height=20     xoffset=1     yoffset=0    xadvance=11     page=0  chnl=0 
char id=7840   x=217     y=44     width=16     height=20     xoffset=-1     yoffset=3    xadvance=13     page=0  chnl=0 
char id=7884   x=233     y=44     width=16     height=19     xoffset=1     yoffset=4    xadvance=16     page=0  chnl=0 
char id=189   x=249     y=44     width=18     height=17     xoffset=1     yoffset=3    xadvance=17     page=0  chnl=0 
char id=35   x=267     y=44     width=13     height=17     xoffset=0     yoffset=3    xadvance=11     page=0  chnl=0 
char id=37   x=280     y=44     width=17     height=17     xoffset=1     yoffset=3    xadvance=18     page=0  chnl=0 
char id=92   x=297     y=44     width=7     height=17     xoffset=0     yoffset=3    xadvance=6     page=0  chnl=0 
char id=47   x=304     y=44     width=7     height=17     xoffset=0     yoffset=3    xadvance=6     page=0  chnl=0 
char id=63   x=311     y=44     width=10     height=17     xoffset=1     yoffset=3    xadvance=11     page=0  chnl=0 
char id=33   x=321     y=44     width=4     height=17     xoffset=2     yoffset=3    xadvance=6     page=0  chnl=0 
char id=7925   x=325     y=44     width=13     height=17     xoffset=-1     yoffset=7    xadvance=10     page=0  chnl=0 
char id=7919   x=338     y=44     width=14     height=17     xoffset=1     yoffset=3    xadvance=13     page=0  chnl=0 
char id=7917   x=352     y=44     width=14     height=17     xoffset=1     yoffset=3    xadvance=13     page=0  chnl=0 
char id=7913   x=366     y=44     width=14     height=17     xoffset=1     yoffset=3    xadvance=13     page=0  chnl=0 
char id=7915   x=380     y=44     width=14     height=17     xoffset=1     yoffset=3    xadvance=13     page=0  chnl=0 
char id=431   x=394     y=44     width=18     height=17     xoffset=1     yoffset=3    xadvance=17     page=0  chnl=0 
char id=361   x=412     y=44     width=10     height=17     xoffset=1     yoffset=3    xadvance=10     page=0  chnl=0 
char id=7911   x=422     y=44     width=10     height=17     xoffset=1     yoffset=3    xadvance=10     page=0  chnl=0 
char id=250   x=432     y=44     width=10     height=17     xoffset=1     yoffset=3    xadvance=10     page=0  chnl=0 
char id=249   x=442     y=44     width=10     height=17     xoffset=1     yoffset=3    xadvance=10     page=0  chnl=0 
char id=7905   x=452     y=44     width=13     height=17     xoffset=1     yoffset=3    xadvance=13     page=0  chnl=0 
char id=7903   x=465     y=44     width=13     height=17     xoffset=1     yoffset=3    xadvance=13     page=0  chnl=0 
char id=7899   x=478     y=44     width=13     height=17     xoffset=1     yoffset=3    xadvance=13     page=0  chnl=0 
char id=7901   x=491     y=44     width=13     height=17     xoffset=1     yoffset=3    xadvance=13     page=0  chnl=0 
char id=416   x=0     y=65     width=18     height=17     xoffset=1     yoffset=3    xadvance=17     page=0  chnl=0 
char id=244   x=18     y=65     width=11     height=17     xoffset=1     yoffset=3    xadvance=11     page=0  chnl=0 
char id=245   x=29     y=65     width=11     height=17     xoffset=1     yoffset=3    xadvance=11     page=0  chnl=0 
char id=7887   x=40     y=65     width=11     height=17     xoffset=1     yoffset=3    xadvance=11     page=0  chnl=0 
char id=243   x=51     y=65     width=11     height=17     xoffset=1     yoffset=3    xadvance=11     page=0  chnl=0 
char id=242   x=62     y=65     width=11     height=17     xoffset=1     yoffset=3    xadvance=11     page=0  chnl=0 
char id=297   x=73     y=65     width=8     height=17     xoffset=0     yoffset=3    xadvance=6     page=0  chnl=0 
char id=7881   x=81     y=65     width=6     height=17     xoffset=0     yoffset=3    xadvance=4     page=0  chnl=0 
char id=237   x=87     y=65     width=4     height=17     xoffset=2     yoffset=3    xadvance=6     page=0  chnl=0 
char id=236   x=91     y=65     width=5     height=17     xoffset=1     yoffset=3    xadvance=6     page=0  chnl=0 
char id=234   x=96     y=65     width=11     height=17     xoffset=1     yoffset=3    xadvance=11     page=0  chnl=0 
char id=7869   x=107     y=65     width=11     height=17     xoffset=1     yoffset=3    xadvance=11     page=0  chnl=0 
char id=7867   x=118     y=65     width=11     height=17     xoffset=1     yoffset=3    xadvance=11     page=0  chnl=0 
char id=233   x=129     y=65     width=11     height=17     xoffset=1     yoffset=3    xadvance=11     page=0  chnl=0 
char id=232   x=140     y=65     width=11     height=17     xoffset=1     yoffset=3    xadvance=11     page=0  chnl=0 
char id=273   x=151     y=65     width=12     height=17     xoffset=1     yoffset=3    xadvance=11     page=0  chnl=0 
char id=272   x=163     y=65     width=15     height=17     xoffset=0     yoffset=3    xadvance=14     page=0  chnl=0 
char id=259   x=178     y=65     width=10     height=17     xoffset=1     yoffset=3    xadvance=11     page=0  chnl=0 
char id=226   x=188     y=65     width=10     height=17     xoffset=1     yoffset=3    xadvance=11     page=0  chnl=0 
char id=227   x=198     y=65     width=10     height=17     xoffset=1     yoffset=3    xadvance=11     page=0  chnl=0 
char id=7843   x=208     y=65     width=10     height=17     xoffset=1     yoffset=3    xadvance=11     page=0  chnl=0 
char id=225   x=218     y=65     width=10     height=17     xoffset=1     yoffset=3    xadvance=11     page=0  chnl=0 
char id=224   x=228     y=65     width=10     height=17     xoffset=1     yoffset=3    xadvance=11     page=0  chnl=0 
char id=48   x=238     y=65     width=11     height=17     xoffset=1     yoffset=3    xadvance=11     page=0  chnl=0 
char id=56   x=249     y=65     width=11     height=17     xoffset=1     yoffset=3    xadvance=11     page=0  chnl=0 
char id=55   x=260     y=65     width=11     height=17     xoffset=1     yoffset=3    xadvance=11     page=0  chnl=0 
char id=53   x=271     y=65     width=11     height=17     xoffset=1     yoffset=3    xadvance=11     page=0  chnl=0 
char id=52   x=282     y=65     width=12     height=17     xoffset=0     yoffset=3    xadvance=11     page=0  chnl=0 
char id=49   x=294     y=65     width=7     height=17     xoffset=2     yoffset=3    xadvance=11     page=0  chnl=0 
char id=121   x=301     y=65     width=12     height=17     xoffset=-1     yoffset=7    xadvance=10     page=0  chnl=0 
char id=113   x=313     y=65     width=11     height=17     xoffset=1     yoffset=7    xadvance=11     page=0  chnl=0 
char id=112   x=324     y=65     width=11     height=17     xoffset=1     yoffset=7    xadvance=11     page=0  chnl=0 
char id=108   x=335     y=65     width=4     height=17     xoffset=1     yoffset=3    xadvance=4     page=0  chnl=0 
char id=107   x=339     y=65     width=10     height=17     xoffset=1     yoffset=3    xadvance=10     page=0  chnl=0 
char id=105   x=349     y=65     width=4     height=17     xoffset=1     yoffset=3    xadvance=4     page=0  chnl=0 
char id=104   x=353     y=65     width=10     height=17     xoffset=1     yoffset=3    xadvance=10     page=0  chnl=0 
char id=103   x=363     y=65     width=11     height=17     xoffset=1     yoffset=7    xadvance=11     page=0  chnl=0 
char id=102   x=374     y=65     width=8     height=17     xoffset=0     yoffset=3    xadvance=6     page=0  chnl=0 
char id=100   x=382     y=65     width=11     height=17     xoffset=1     yoffset=3    xadvance=11     page=0  chnl=0 
char id=98   x=393     y=65     width=11     height=17     xoffset=1     yoffset=3    xadvance=11     page=0  chnl=0 
char id=90   x=404     y=65     width=13     height=17     xoffset=0     yoffset=3    xadvance=12     page=0  chnl=0 
char id=89   x=417     y=65     width=15     height=17     xoffset=0     yoffset=3    xadvance=14     page=0  chnl=0 
char id=88   x=432     y=65     width=14     height=17     xoffset=0     yoffset=3    xadvance=13     page=0  chnl=0 
char id=87   x=446     y=65     width=20     height=17     xoffset=0     yoffset=3    xadvance=19     page=0  chnl=0 
char id=86   x=466     y=65     width=16     height=17     xoffset=-1     yoffset=3    xadvance=13     page=0  chnl=0 
char id=85   x=482     y=65     width=13     height=17     xoffset=1     yoffset=3    xadvance=13     page=0  chnl=0 
char id=84   x=495     y=65     width=14     height=17     xoffset=0     yoffset=3    xadvance=12     page=0  chnl=0 
char id=83   x=0     y=82     width=12     height=17     xoffset=1     yoffset=3    xadvance=13     page=0  chnl=0 
char id=82   x=12     y=82     width=12     height=17     xoffset=2     yoffset=3    xadvance=14     page=0  chnl=0 
char id=81   x=24     y=82     width=16     height=17     xoffset=1     yoffset=4    xadvance=16     page=0  chnl=0 
char id=80   x=40     y=82     width=12     height=17     xoffset=2     yoffset=3    xadvance=13     page=0  chnl=0 
char id=78   x=52     y=82     width=13     height=17     xoffset=1     yoffset=3    xadvance=13     page=0  chnl=0 
char id=76   x=65     y=82     width=10     height=17     xoffset=2     yoffset=3    xadvance=11     page=0  chnl=0 
char id=75   x=75     y=82     width=12     height=17     xoffset=2     yoffset=3    xadvance=13     page=0  chnl=0 
char id=74   x=87     y=82     width=9     height=17     xoffset=1     yoffset=3    xadvance=10     page=0  chnl=0 
char id=73   x=96     y=82     width=4     height=17     xoffset=2     yoffset=3    xadvance=6     page=0  chnl=0 
char id=72   x=100     y=82     width=13     height=17     xoffset=1     yoffset=3    xadvance=13     page=0  chnl=0 
char id=71   x=113     y=82     width=16     height=17     xoffset=1     yoffset=3    xadvance=16     page=0  chnl=0 
char id=70   x=129     y=82     width=11     height=17     xoffset=2     yoffset=3    xadvance=12     page=0  chnl=0 
char id=69   x=140     y=82     width=12     height=17     xoffset=2     yoffset=3    xadvance=13     page=0  chnl=0 
char id=68   x=152     y=82     width=13     height=17     xoffset=2     yoffset=3    xadvance=14     page=0  chnl=0 
char id=67   x=165     y=82     width=13     height=17     xoffset=1     yoffset=3    xadvance=14     page=0  chnl=0 
char id=66   x=178     y=82     width=12     height=17     xoffset=2     yoffset=3    xadvance=13     page=0  chnl=0 
char id=65   x=190     y=82     width=16     height=17     xoffset=-1     yoffset=3    xadvance=13     page=0  chnl=0 
char id=38   x=206     y=82     width=13     height=16     xoffset=1     yoffset=4    xadvance=13     page=0  chnl=0 
char id=59   x=219     y=82     width=4     height=16     xoffset=2     yoffset=7    xadvance=6     page=0  chnl=0 
char id=7921   x=223     y=82     width=14     height=16     xoffset=1     yoffset=7    xadvance=13     page=0  chnl=0 
char id=7909   x=237     y=82     width=10     height=16     xoffset=1     yoffset=7    xadvance=10     page=0  chnl=0 
char id=7907   x=247     y=82     width=13     height=16     xoffset=1     yoffset=7    xadvance=13     page=0  chnl=0 
char id=7885   x=260     y=82     width=11     height=16     xoffset=1     yoffset=7    xadvance=11     page=0  chnl=0 
char id=7865   x=271     y=82     width=11     height=16     xoffset=1     yoffset=7    xadvance=11     page=0  chnl=0 
char id=7841   x=282     y=82     width=10     height=16     xoffset=1     yoffset=7    xadvance=11     page=0  chnl=0 
char id=57   x=292     y=82     width=11     height=16     xoffset=1     yoffset=4    xadvance=11     page=0  chnl=0 
char id=54   x=303     y=82     width=11     height=16     xoffset=1     yoffset=4    xadvance=11     page=0  chnl=0 
char id=51   x=314     y=82     width=10     height=16     xoffset=1     yoffset=4    xadvance=11     page=0  chnl=0 
char id=50   x=324     y=82     width=11     height=16     xoffset=1     yoffset=4    xadvance=11     page=0  chnl=0 
char id=116   x=335     y=82     width=7     height=16     xoffset=0     yoffset=4    xadvance=6     page=0  chnl=0 
char id=79   x=342     y=82     width=16     height=16     xoffset=1     yoffset=4    xadvance=16     page=0  chnl=0 
char id=77   x=358     y=82     width=15     height=16     xoffset=2     yoffset=4    xadvance=17     page=0  chnl=0 
char id=8363   x=373     y=82     width=9     height=15     xoffset=2     yoffset=3    xadvance=10     page=0  chnl=0 
char id=58   x=382     y=82     width=4     height=13     xoffset=2     yoffset=7    xadvance=6     page=0  chnl=0 
char id=432   x=386     y=82     width=14     height=13     xoffset=1     yoffset=7    xadvance=13     page=0  chnl=0 
char id=417   x=400     y=82     width=13     height=13     xoffset=1     yoffset=7    xadvance=13     page=0  chnl=0 
char id=122   x=413     y=82     width=11     height=13     xoffset=0     yoffset=7    xadvance=9     page=0  chnl=0 
char id=120   x=424     y=82     width=11     height=13     xoffset=0     yoffset=7    xadvance=9     page=0  chnl=0 
char id=119   x=435     y=82     width=18     height=13     xoffset=-1     yoffset=7    xadvance=15     page=0  chnl=0 
char id=118   x=453     y=82     width=12     height=13     xoffset=-1     yoffset=7    xadvance=9     page=0  chnl=0 
char id=117   x=465     y=82     width=10     height=13     xoffset=1     yoffset=7    xadvance=10     page=0  chnl=0 
char id=115   x=475     y=82     width=10     height=13     xoffset=1     yoffset=7    xadvance=10     page=0  chnl=0 
char id=114   x=485     y=82     width=7     height=13     xoffset=1     yoffset=7    xadvance=7     page=0  chnl=0 
char id=111   x=492     y=82     width=11     height=13     xoffset=1     yoffset=7    xadvance=11     page=0  chnl=0 
char id=110   x=0     y=99     width=10     height=13     xoffset=1     yoffset=7    xadvance=10     page=0  chnl=0 
char id=109   x=10     y=99     width=16     height=13     xoffset=1     yoffset=7    xadvance=16     page=0  chnl=0 
char id=101   x=26     y=99     width=11     height=13     xoffset=1     yoffset=7    xadvance=11     page=0  chnl=0 
char id=97   x=37     y=99     width=10     height=13     xoffset=1     yoffset=7    xadvance=11     page=0  chnl=0 
char id=43   x=47     y=99     width=12     height=12     xoffset=1     yoffset=6    xadvance=12     page=0  chnl=0 
char id=99   x=59     y=99     width=9     height=12     xoffset=1     yoffset=8    xadvance=10     page=0  chnl=0 
char id=187   x=68     y=99     width=11     height=11     xoffset=1     yoffset=8    xadvance=11     page=0  chnl=0 
char id=171   x=79     y=99     width=10     height=11     xoffset=1     yoffset=8    xadvance=11     page=0  chnl=0 
char id=94   x=89     y=99     width=9     height=10     xoffset=0     yoffset=3    xadvance=8     page=0  chnl=0 
char id=62   x=98     y=99     width=12     height=10     xoffset=1     yoffset=7    xadvance=12     page=0  chnl=0 
char id=60   x=110     y=99     width=12     height=10     xoffset=1     yoffset=7    xadvance=12     page=0  chnl=0 
char id=179   x=122     y=99     width=8     height=9     xoffset=0     yoffset=3    xadvance=7     page=0  chnl=0 
char id=178   x=130     y=99     width=8     height=9     xoffset=0     yoffset=3    xadvance=7     page=0  chnl=0 
char id=185   x=138     y=99     width=6     height=9     xoffset=1     yoffset=3    xadvance=7     page=0  chnl=0 
char id=42   x=144     y=99     width=8     height=8     xoffset=0     yoffset=3    xadvance=8     page=0  chnl=0 
char id=61   x=152     y=99     width=12     height=8     xoffset=1     yoffset=8    xadvance=12     page=0  chnl=0 
char id=8217   x=164     y=99     width=4     height=7     xoffset=1     yoffset=3    xadvance=4     page=0  chnl=0 
char id=8226   x=168     y=99     width=7     height=7     xoffset=1     yoffset=8    xadvance=7     page=0  chnl=0 
char id=8221   x=175     y=99     width=7     height=7     xoffset=1     yoffset=3    xadvance=7     page=0  chnl=0 
char id=44   x=182     y=99     width=4     height=7     xoffset=2     yoffset=16    xadvance=6     page=0  chnl=0 
char id=39   x=186     y=99     width=4     height=7     xoffset=1     yoffset=3    xadvance=4     page=0  chnl=0 
char id=34   x=190     y=99     width=7     height=7     xoffset=1     yoffset=3    xadvance=7     page=0  chnl=0 
char id=8220   x=197     y=99     width=7     height=6     xoffset=1     yoffset=4    xadvance=7     page=0  chnl=0 
char id=126   x=204     y=99     width=12     height=5     xoffset=1     yoffset=10    xadvance=12     page=0  chnl=0 
char id=96   x=216     y=99     width=4     height=5     xoffset=1     yoffset=3    xadvance=7     page=0  chnl=0 
char id=8230   x=220     y=99     width=18     height=4     xoffset=2     yoffset=16    xadvance=20     page=0  chnl=0 
char id=8211   x=238     y=99     width=13     height=4     xoffset=0     yoffset=12    xadvance=11     page=0  chnl=0 
char id=8212   x=251     y=99     width=22     height=4     xoffset=0     yoffset=12    xadvance=20     page=0  chnl=0 
char id=95   x=273     y=99     width=13     height=4     xoffset=0     yoffset=20    xadvance=11     page=0  chnl=0 
char id=45   x=286     y=99     width=8     height=4     xoffset=0     yoffset=12    xadvance=7     page=0  chnl=0 
char id=46   x=294     y=99     width=4     height=4     xoffset=2     yoffset=16    xadvance=6     page=0  chnl=0 
